{
  "version": 8,
  "name": "Sentinel-2 Grid (OSM)",
  "metadata": {"maputnik:renderer": "mbgljs"},
  "sources": {
    "sentinel-2-grid": {
      "type": "vector",
      "url": "http://localhost:8080/data/sentinel-2-grid.json",
      "attribution": "ESA Copernicus"
    },
    "osm": {
      "type": "raster",
      "tiles": ["https://tile.openstreetmap.org/{z}/{x}/{y}.png"],
      "attribution": "<a href=\"https://www.openstreetmap.org/copyright\" rel=\"noopener noreferrer\" target=\"_blank\">&copy; Contributeurs OpenStreetMap</a>",
      "minzoom": 0,
      "maxzoom": 14
    }
  },
  "sprite": "",
  "glyphs": "https://orangemug.github.io/font-glyphs/glyphs/{fontstack}/{range}.pbf",
  "layers": [
    {"id": "osm", "type": "raster", "source": "osm"},
    {
      "id": "tiles-id",
      "type": "symbol",
      "source": "sentinel-2-grid",
      "source-layer": "grid",
      "minzoom": 6,
      "layout": {
        "text-field": "{Name}",
        "text-font": ["Noto Sans Regular"],
        "text-size": {"stops": [[6, 10], [12, 14]]},
        "visibility": "visible"
      }
    },
    {
      "id": "tiles",
      "type": "line",
      "source": "sentinel-2-grid",
      "source-layer": "grid",
      "minzoom": 0,
      "layout": {"visibility": "visible"}
    }
  ],
  "id": "kesgbo2az"
}